RUNS   ORUN    HIT   ERR  RES
  12     12     13     5    T 
  13      2     17     3    W 
  12      6     19     4    W 
   2     23      8     6    L 
  10      8     17     4    W 
   6     17      7     5    L 
   3      7      8     3    L 
   6      5      5     3    W 
   3      0     13     3    W 
   6     19     13     6    L 
   7     10     16     6    L 
   2      6      7     4    L 
   2      5     10     3    L 
   9      4     16     2    W 
  19     10     25     5    W 
  13      4     19     3    W 
   5     12      9     4    L 
  10      8     16     3    W 
   9     15     13     3    L 
  19      5     22     3    W 
   8      1     14     1    W 
  20      8     22     2    W 
  17      2     19     1    W 
   8      7     14     0    W 
   2      9      5     3    L 
  14      5     18     2    W 
   9      8     15     5    W 
  18      5     19     3    W 
  20      7     22     1    W 
   8      6     15     5    W 
  14      7     13     2    W 
  18      2     14     0    W 
  13      5     17     4    W 
  12     11     18     4    W 
   5     11      9     7    L 
  30      3     31     0    W 
  21      8     25     1    W 
  15     10     19     3    W 
   6      8     13     4    L 
  11     14     11     3    L 
   5      2      7     2    W 
   1      8      3     5    L 
   9      3      8     7    W 
   8      9     11     5    L 
  11     10     10     3    W 
   2      8      6     4    L 
   4     12     11     4    L 
  12      4     13     3    W 
  10      5     17     2    W 
  12     15     14     4    L 
  14      3     14     0    W 
   7      2     12     4    W 
  11      5      8     0    W 
  14      6     17     1    W 
  13      7     15     6    W 
   3      4     11     6    L 
   2      4      6     6    L 
   4      7     12     3    L 
   6     13     12     6    L 
  12     10     23     9    W 
  11      6     14     3    W 
  10      9     15     4    W 
  13      4     19     1    W 
   2      9     11     6    L 
   3      6      7     5    L 
   4      3     10     3    W 
   4      4     13     3    T 
   9      2     15     1    W 
   6     12     15     7    L 
   6      6     15     8    T 
  15      8     20     3    W 
   3      6      6     6    L 
  16      4     19     1    W 
  12     10     18     3    W 
  15     14     23     7    W 
   5     13     11     4    L 
  13      1     16     1    W 
   4     11      9     7    L 
   5      8     12     6    L 
   4      6     12     5    L 
   5      1      9     4    W 
   2      6     12     6    L 
   9      8     12     3    W 
  16      4     21     3    W 
  15      5     17     3    W 
   8     11     14     1    L 
  12     14     15     9    L 
   7     14     15     7    L 
  14      2     20     2    W 
  11     16     18    10    L 
  10      1     18     0    W 
  15      3     16     1    W 
   2      6      9     5    L 
  14      7     16     4    W 
  16      2     20     1    W 
  12      7     16     3    W 
  10      9     11     3    W 
   1     17      5     2    L 
   7      4     10     2    W 
   6      1     12     3    W 
   4      9     12     5    L 
   1     13      5     6    L 
   7      3     11     1    W 
  13      7     15     3    W 
   2     10     11     5    L 
   7      5     12     4    W 
  10      2     11     5    W 
   4     12      9     6    L 
   8      9     12     4    L 
   7      8     12     6    L 
   7     12     15     6    L 
  10     19      8     9    L 
   5      4     11     4    W 
   5     13      7     4    L 
  13      9     16     5    W 
   6      1     14     2    W 
   9      7     15     4    W 
   2     14      8     5    L 
  17      2     14     3    W 
  18      2     15     2    W 
  13     13     17     3    T 
  13     12     18     8    W 
  25      5     22     1    W 
   6      4      9     3    W 
  20      0     19     2    W 
  24      2     25     4    W 
   4      0      9     2    W 
   7     17     11     6    L 
  10     10     15     2    T 
  15      0     17     2    W 
  10     13     13     5    L 
   8      4     16     3    W 
  12      6     16     3    W 
  12      1     10     3    W 
  19     12     23     6    W 
   8      1     13     1    W 
   7      9     14     3    L 
   9      4     10     4    W 
   7      6     13     3    W 
  18      7     19     4    W 
  10      7     12     4    W 
  12     10     17     4    W 
  11      3     14     0    W 
  13      5     16     3    W 
  10      4     17     4    W 
   6     12      6     2    L 
  12      2     11     2    W 
   6     15     12     3    L 
  14     10     17     2    W 
   3     14      5     4    L 
  12      0     16     0    W 
  17      6     17     0    W 
  10      2     16     2    W 
  22      0     28     2    W 
  11      3     13     0    W 
   5     10     16     5    L 
  10      6     15     4    W 
   8      6     12     5    W 
   5      4     11     4    W 
   5      4     13     5    W 
  18     11     20     5    W 
  14     13     17     8    W 
  12      3     12     2    W 
   3      7      6     1    L 
   8      5     18     2    W 
  10      9     17     4    W 
  14     13     18     3    W 
  13     14     16     5    L 
  14      0     17     0    W 
  11     10     13     8    W 
  16      0     13     1    W 
  16      3     18     2    W 
  13      3     18     2    W 
   8      6     10     2    W 
  16      5     21     6    W 
  12      4     16     4    W 
  19      3     22     2    W 
  16      5     21     3    W 
  10      5     14     2    W 
  14      6     21     4    W 
   7      6     15     2    W 
   9      5     13     1    W 
   6      8      9     2    L 
  11     10     14     4    W 
   8      9     13     6    L 
   8      3     16     4    W 
  19      0     19     0    W 
  14      6     17     3    W 
   1     16      6     4    L 
  10     11     13     6    L 
  17      9     24     4    W 
   7     14     12     5    L 
  19      1     25     1    W 
  13      8     19     4    W 
  14      8     20     0    W 
  11     10     19     5    W 
  13      4     16     3    W 
   9     10     14     5    L 
   9      0     13     2    W 
  29      7     37     5    W 
  10      0     13     1    W 
  14      7     22     0    W 
  13      3     17     2    W 
  18      6     25     2    W 
  21     12     25     1    W 
  30      1     28     1    W 
  14     12     22     3    W 
   6      1     13     0    W 
   6      5     11     4    W 
  17      6     19     5    W 
  16      1     13     2    W 
  14      6     24     2    W 
  12      4     16     4    W 
   8      7     15     2    W 
   6      4     12     1    W 
  12      1     15     2    W 
  13      3     14     2    W 
  13     20     17     6    L 
   8      7     10     2    W 
   7      9     13     5    L 
  10      0     13     1    W 
   9      7     11     4    W 
  15      1     22     2    W 
  13     11     20     6    W 
  15      5     13     3    W 
  15      4     22     0    W 
   7      9     15     3    L 
  20     11     21     6    W 
  20      9     20     2    W 
  19     15     17     4    W 
   2      8     10     1    L 
   9     12     15     4    L 
  12     13      9     4    L 
   2     15      8     3    L 
  11      5     13     2    W 
  15      7     23     1    W 
   8     13     13     6    L 
  15      5     19     4    W 
   6     11     11     3    L 
  10      6     15     3    W 
  15      6     15     2    W 
   9     13     10     5    L 
   9      4     13     2    W 
  15     12     18     2    W 
   7      8     16     6    L 
  22     12     20     6    W 
  18     17     21     6    W 
   1     15      7     5    L 
   7      8     12     4    L 
  10     13     10     6    L 
   6     15     16     8    L 
  14     11     20     5    W 
   6      3     12     3    W 
  13      8     18     3    W 
  10      9     10     2    W 
  14     15     13     2    L 
   4     14      9     4    L 
  21      4     16     1    W 
   6     12     15     3    L 
   5      4     11     2    W 
  12     13     16     4    L 
  11     13     14     2    L 
  16      1     10     0    W 
  16      4     17     2    W 
  10      2     11     1    W 
   9      4     12     3    W 
   7      6      9     2    W 
   9      6     13     1    W 
  10     11     10     4    L 
  12     11     17     4    W
  11      0     10     3    W
  17      7     25     2    W
   4      8     11     1    L
   8      8     14     3    T
   8     13     10     4    L
  17      2     16     2    W
  11      1     15     2    W
  13      1     18     2    W
  16      4     19     1    W
  10      7     12     4    W
  10      3     11     4    W
  16      0     15     2    W
  14      9     15     3    W
  26      9     27     2    W
   8      9     18     1    L
  10      3     15     1    W
  13      3     15     1    W
  17     22     20    11    L
  11      5     17     5    W
  12     11     13     8    W
   9     10     15     2    L
  13      7     14     3    W
  13      8     12     2    W
  10      6     14     5    W
  16      5     20     4    W
  13      2     15     3    W
  10     13     19     5    L
  12     15     19     9    L
  17      5     18     3    W
   8     14     14     5    L
  20      4     17     0    W
   4      7      8     3    L
  24      7     29     2    W
   8      9     12     1    L
   6      3     14     6    W
   4      9     10     2    L
   9      5     12     5    W
   7      9     12     4    L
  17      7     19     2    W
  11      1      9     3    W
  16      6     19     3    W
  12     10     18     3    W
   8      9     10     2    L
  10     13     17     5    L
   2     16      8     5    L
   7      4     11     3    W
  14      4     15     1    W
   0     11      3     6    L
  15      0     14     0    W
  20      4     21     3    W
  13      2     16     2    W
   6      3      8     3    W
  23      0     18     0    W
  21      4     22     4    W
  11      5     16     5    W
  13      2     18     1    W
  17      2     20     1    W
  27      1     31     1    W
  11      2     17     2    W
  18      2     18     1    W
  18      0     18     0    W
  15      9     22     1    W
  16      1     14     0    W
  18      8     18     3    W
  15      5     19     5    W
   3      2      6     3    W
  11      1     12     3    W
   7      7     15     5    T
   9      2     13     3    W
  13      5     16     4    W
  13     10     16     4    W
   5      3      9     1    W
  17      2     16     3    W
   1     15      4     8    L
  19     18     22     7    W
  16      7     21     3    W
  12     15     22     4    L
  12      5     16     6    W
  19      4     19     0    W
  18      4     17     3    W
  17      9     16     3    W
  15      2     18     1    W
  20      9     23     2    W
  18      8     22     1    W
  16     10     18     1    W
  10      3     18     3    W
  17     18     14     5    L
  14     15     18     4    L
  10      0     14     2    W
   7      8     13     4    L
  17     12     20     2    W
  15      9     17     4    W
   7     14     10     3    L
  18      8     22     3    W
  11      0     14     1    W
  15      4     13     2    W
  16      0     15     0    W
  16      4     19     2    W
  32      2     27     1    W
  12     11     24     5    W
  17      1     21     4    W
  15      1     17     0    W
  12      3     12     1    W
  11      1     18     2    W
  16      1     16     1    W
  14      3     20     1    W
  22      7     23     4    W
  14      8     17     6    W
  11      6     15     2    W
  25      4     28     0    W
  28      6     29     1    W
  14     14     18     7    T
   5      4     10     2    W
  14      9     19     0    W
  15      8     13     1    W
  14      9     15     5    W
   7      9     11     3    L
   8     11     10     7    L
   3      5      7     3    L
   9      6     14     3    W
  10      7     12     5    W
  14      4     17     1    W
   2     15      2     1    L
   5      1      8     1    W
  10      2     18     1    W
  24      6     26     3    W
  14      4     18     5    W
  13     14     16     2    L
   9     13     15     7    L
   9      8     16     3    W
   9      6     15     2    W
  15     21     22     7    L
   6      9     17     3    L
   6     14     11     7    L
  10      9     16     3    W
   8     11     15     3    L
   3     13     10     3    L
  15      9     12     3    W
   9      5     10     2    W
  10      9     14     3    W
  16     15     19     6    W
  14     13     17     4    W
   8      7     16     3    W
   2     12      6     3    L
  12     10      9     5    W
  14      8     16     1    W
  18      2     20     1    W
  13      8     11     1    W
  14     16     24     4    L
  25      3     24     3    W
   3     13      7     6    L
   8      9     13     4    L
   9     10     15     3    L
  12     20     17     6    L
   9     11     16     3    L
  22     11     23     4    W
   9     19     15     2    L
   7     19      8     5    L
   8      5      7     2    W
  13     12     15     7    W
   3     22      7     7    L
  10     15     10     2    L
  16      6     15     2    W
  14     13     14     5    W
   9      8     10     2    W
   3     12     10     1    L
  15     10     16     3    W
   8      2     13     1    W
  15      3     20     1    W
  19      0     21     0    W
  19      7     23     1    W
  21      6     24     0    W
  21     10     30     4    W
   5      3     11     1    W
  21     12     22     3    W
  11     14     15     6    L
  10     12     12     3    L
  18      5     17     4    W
  18     11     13     4    W
  19      5     18     3    W
   7     10     14     3    L
  13      9     16     2    W
  13     10     15     2    W
   5     12     12     4    L
   4      9      7     2    L
  19      9     16     3    W
   9     10     11     8    L
  14      9     18     2    W
  17      2     22     2    W
  14     14     14     5    T
   7      9     11     4    L
  12      0     16     1    W
   8      7     16     2    W
   7      3     15     1    W
   7      6     12     3    W
   7      6     14     3    W